-- Merging decision tree log ---
manifest
ADDED from /Users/globalflow/src/bmp/PaymentRouterClient/AndroidManifest.xml:2:1-27:12
INJECTED from /Users/globalflow/src/bmp/PaymentRouterClient/AndroidManifest.xml:2:1-27:12
INJECTED from /Users/globalflow/src/bmp/PaymentRouterClient/AndroidManifest.xml:2:1-27:12
INJECTED from /Users/globalflow/src/bmp/PaymentRouterClient/AndroidManifest.xml:2:1-27:12
INJECTED from /Users/globalflow/src/bmp/PaymentRouterClient/AndroidManifest.xml:2:1-27:12
INJECTED from /Users/globalflow/src/bmp/PaymentRouterClient/AndroidManifest.xml:2:1-27:12
INJECTED from /Users/globalflow/src/bmp/PaymentRouterClient/AndroidManifest.xml:2:1-27:12
	package
		ADDED from /Users/globalflow/src/bmp/PaymentRouterClient/AndroidManifest.xml:3:5-47
		INJECTED from /Users/globalflow/src/bmp/PaymentRouterClient/AndroidManifest.xml
		INJECTED from /Users/globalflow/src/bmp/PaymentRouterClient/AndroidManifest.xml
	android:versionName
		ADDED from /Users/globalflow/src/bmp/PaymentRouterClient/AndroidManifest.xml:5:5-30
		INJECTED from /Users/globalflow/src/bmp/PaymentRouterClient/AndroidManifest.xml
		INJECTED from /Users/globalflow/src/bmp/PaymentRouterClient/AndroidManifest.xml
	xmlns:android
		ADDED from /Users/globalflow/src/bmp/PaymentRouterClient/AndroidManifest.xml:2:11-69
	android:versionCode
		ADDED from /Users/globalflow/src/bmp/PaymentRouterClient/AndroidManifest.xml:4:5-28
		INJECTED from /Users/globalflow/src/bmp/PaymentRouterClient/AndroidManifest.xml
		INJECTED from /Users/globalflow/src/bmp/PaymentRouterClient/AndroidManifest.xml
application
ADDED from /Users/globalflow/src/bmp/PaymentRouterClient/AndroidManifest.xml:7:5-25:19
	android:label
		ADDED from /Users/globalflow/src/bmp/PaymentRouterClient/AndroidManifest.xml:10:9-41
	android:icon
		ADDED from /Users/globalflow/src/bmp/PaymentRouterClient/AndroidManifest.xml:9:9-45
	android:allowBackup
		ADDED from /Users/globalflow/src/bmp/PaymentRouterClient/AndroidManifest.xml:8:9-35
	android:theme
		ADDED from /Users/globalflow/src/bmp/PaymentRouterClient/AndroidManifest.xml:11:9-40
activity#com.wizarpos.paymentrouterclient.MainActivity
ADDED from /Users/globalflow/src/bmp/PaymentRouterClient/AndroidManifest.xml:12:9-22:20
	android:screenOrientation
		ADDED from /Users/globalflow/src/bmp/PaymentRouterClient/AndroidManifest.xml:14:13-49
	android:label
		ADDED from /Users/globalflow/src/bmp/PaymentRouterClient/AndroidManifest.xml:15:13-45
	android:name
		ADDED from /Users/globalflow/src/bmp/PaymentRouterClient/AndroidManifest.xml:13:13-73
intent-filter#action:name:android.intent.action.MAIN+category:name:android.intent.category.LAUNCHER
ADDED from /Users/globalflow/src/bmp/PaymentRouterClient/AndroidManifest.xml:17:13-21:29
action#android.intent.action.MAIN
ADDED from /Users/globalflow/src/bmp/PaymentRouterClient/AndroidManifest.xml:18:17-69
	android:name
		ADDED from /Users/globalflow/src/bmp/PaymentRouterClient/AndroidManifest.xml:18:25-66
category#android.intent.category.LAUNCHER
ADDED from /Users/globalflow/src/bmp/PaymentRouterClient/AndroidManifest.xml:20:17-77
	android:name
		ADDED from /Users/globalflow/src/bmp/PaymentRouterClient/AndroidManifest.xml:20:27-74
uses-sdk
INJECTED from /Users/globalflow/src/bmp/PaymentRouterClient/AndroidManifest.xml reason: use-sdk injection requested
INJECTED from /Users/globalflow/src/bmp/PaymentRouterClient/AndroidManifest.xml
INJECTED from /Users/globalflow/src/bmp/PaymentRouterClient/AndroidManifest.xml
INJECTED from /Users/globalflow/src/bmp/PaymentRouterClient/AndroidManifest.xml
INJECTED from /Users/globalflow/src/bmp/PaymentRouterClient/AndroidManifest.xml
	android:targetSdkVersion
		INJECTED from /Users/globalflow/src/bmp/PaymentRouterClient/AndroidManifest.xml
		ADDED from /Users/globalflow/src/bmp/PaymentRouterClient/AndroidManifest.xml
		INJECTED from /Users/globalflow/src/bmp/PaymentRouterClient/AndroidManifest.xml
	android:minSdkVersion
		INJECTED from /Users/globalflow/src/bmp/PaymentRouterClient/AndroidManifest.xml
		ADDED from /Users/globalflow/src/bmp/PaymentRouterClient/AndroidManifest.xml
		INJECTED from /Users/globalflow/src/bmp/PaymentRouterClient/AndroidManifest.xml
